<svg id="export" xmlns="http://www.w3.org/2000/svg" viewBox="0 0 512 512">
  <defs>
    <style>
      .cls-1 {
        fill: currentColor;
      }
    </style>
  </defs>
  <title>arrow-thick-bottom</title>
  <path class="cls-1" d="M255.6816,494.6357,16,254.3018V216.0244l143.9375-.0078V16h192V216.0068l144.0146-.0078-.0351,38.6875ZM54.9307,248.0225,255.7266,449.3643,457.3281,248.001l-137.3906.0078V48h-128V248.0146Z"/>
</svg>
