<svg id="export" xmlns="http://www.w3.org/2000/svg" viewBox="0 0 512 512">
  <defs>
    <style>
      .cls-1 {
        fill: currentColor;
      }
    </style>
  </defs>
  <title>arrow-thick-right</title>
  <path class="cls-1" d="M254.3022,496H216.0249l-.0078-143.9375H16v-192H216.0068L215.999,16.0479l38.688.0351L494.6362,256.3184ZM48,320.0625H248.0151l.0074,137.0068L449.3638,256.2734,248.0015,54.6719l.0073,137.3906H48Z"/>
</svg>
