<svg id="export" xmlns="http://www.w3.org/2000/svg" viewBox="0 0 512 512">
  <defs>
    <style>
      .cls-1 {
        fill: currentColor;
      }
    </style>
  </defs>
  <title>check-alt</title>
  <polygon class="cls-1" points="200.359 382.269 61.057 251.673 82.943 228.327 199.641 337.731 428.686 108.687 451.314 131.313 200.359 382.269"/>
</svg>
