<svg id="export" xmlns="http://www.w3.org/2000/svg" viewBox="0 0 512 512">
  <defs>
    <style>
      .cls-1 {
        fill: currentColor;
      }
    </style>
  </defs>
  <title>chevron-left-alt</title>
  <polygon class="cls-1" points="324.687 451.313 129.373 256 324.687 60.687 347.313 83.313 174.628 256 347.313 428.687 324.687 451.313"/>
</svg>
