<svg id="export" xmlns="http://www.w3.org/2000/svg" viewBox="0 0 512 512">
  <defs>
    <style>
      .cls-1 {
        fill: currentColor;
      }
    </style>
  </defs>
  <title>window-minimize</title>
  <rect class="cls-1" x="48" y="448" width="416" height="32"/>
</svg>
