<svg id="export" xmlns="http://www.w3.org/2000/svg" viewBox="0 0 512 512">
  <defs>
    <style>
      .cls-1 {
        fill: currentColor;
      }
    </style>
  </defs>
  <title>crop</title>
  <polygon class="cls-1" points="473.372 16 433.372 56 456 56 456 78.628 496 38.628 496 16 473.372 16"/>
  <polygon class="cls-1" points="88 424 110.628 424 424 110.628 424 88 401.372 88 88 401.372 88 424"/>
  <rect class="cls-1" x="456" y="424" width="40" height="32"/>
  <polygon class="cls-1" points="110.628 424 88 424 88 401.372 88 88 56 88 56 456 424 456 424 424 110.628 424"/>
  <rect class="cls-1" x="56" y="16" width="32" height="40"/>
  <polygon class="cls-1" points="433.372 56 88 56 56 56 16 56 16 88 56 88 88 88 401.372 88 424 88 424 110.628 424 424 424 456 424 496 456 496 456 456 456 424 456 78.628 456 56 433.372 56"/>
</svg>
