<svg id="export" xmlns="http://www.w3.org/2000/svg" viewBox="0 0 512 512">
  <defs>
    <style>
      .cls-1 {
        fill: currentColor;
      }
    </style>
  </defs>
  <title>vertical-align-top</title>
  <g>
    <path class="cls-1" d="M368,496H496V80H368Zm32-384h64V464H400Z"/>
    <path class="cls-1" d="M192,344H320V80H192Zm32-232h64V312H224Z"/>
    <path class="cls-1" d="M16,496H144V80H16ZM48,112h64V464H48Z"/>
    <rect class="cls-1" x="16" y="16" width="480" height="32"/>
  </g>
</svg>
