<svg id="export" xmlns="http://www.w3.org/2000/svg" viewBox="0 0 512 512">
  <defs>
    <style>
      .cls-1 {
        fill: currentColor;
      }
    </style>
  </defs>
  <title>bullhorn</title>
  <path class="cls-1" d="M429.001,15.9326,175.4275,135.9277H15.9922V347.6611L68.1836,495.9277H182.8379l-46.56-128h35.8469L431.1816,496H495.917L496,15.9326ZM159.9922,335.9277H103.9658l.0615,36.9493,33.1192,91.0507H90.8438L47.9922,342.1934V167.9277h112Zm32.125-172.4951,175.875-83.2275V429.0635l-175.875-86.9492ZM463.9229,464H438.66l-38.668-19.1167V65.0625l36.1982-17.13h27.8037Z"/>
</svg>
