<svg id="export" xmlns="http://www.w3.org/2000/svg" viewBox="0 0 512 512">
  <defs>
    <style>
      .cls-1 {
        fill: currentColor;
      }
    </style>
  </defs>
  <title>lock-plus</title>
  <g>
    <path class="cls-1" d="M384,199.9976v-56a128,128,0,0,0-256,0v56H88v128c0,92.6357,75.3643,168,168,168s168-75.3643,168-168v-128Zm-224-56a96,96,0,0,1,192,0v56H160Zm232,184c0,74.9907-61.01,136-136,136s-136-61.0093-136-136v-96H392Z"/>
    <polygon class="cls-1" points="272 264 240 264 240 320 184 320 184 352 240 352 240 408 272 408 272 352 328 352 328 320 272 320 272 264"/>
  </g>
</svg>
