<svg id="export" xmlns="http://www.w3.org/2000/svg" viewBox="0 0 512 512">
  <defs>
    <style>
      .cls-1 {
        fill: currentColor;
      }
    </style>
  </defs>
  <title>low-vision</title>
  <g>
    <path class="cls-1" d="M397.2217,139.1006l-.2178-.2222C335.3105,77.1857,242.9216,64.455,168.5486,100.6668L192.7622,124.88c60.4678-24.5739,132.4985-12.4029,181.5083,36.52L464,254.6826V257.79l-67.8213,70.507,22.63,22.63L496,270.6826V241.79Z"/>
    <path class="cls-1" d="M358.99,290.3231A103.9844,103.9844,0,0,0,221.6768,153.01l25.09,25.09A71.9754,71.9754,0,0,1,333.9,265.2332Z"/>
    <path class="cls-1" d="M16,16V37.94l99.9773,99.9773c-.3262.3217-.6567.6363-.9812.9607L16,241.79v28.8926l98.7783,102.69.2178.2221a199.7151,199.7151,0,0,0,257.498,20.84L474.06,496H496V472.6865L39.3135,16ZM81.9822,219.3547l17.0354-17.71L293.14,395.7674a168.491,168.491,0,0,1-30.7271,4.0179ZM48,257.79v-3.1074l11.7939-12.2611L211.2334,393.8608a166.3626,166.3626,0,0,1-73.5039-42.788ZM326.8794,384.2518,121.2056,178.5781,137.73,161.4c.29-.2889.5854-.5671.8765-.8535L349.51,371.45A165.9475,165.9475,0,0,1,326.8794,384.2518Z"/>
  </g>
</svg>
