<svg id="export" xmlns="http://www.w3.org/2000/svg" viewBox="0 0 512 512">
  <defs>
    <style>
      .cls-1 {
        fill: currentColor;
      }
    </style>
  </defs>
  <title>card-membership</title>
  <path class="cls-1" d="M472.0981,16H39.9019A23.9288,23.9288,0,0,0,16,39.9019V344.0981A23.9288,23.9288,0,0,0,39.9019,368H159.8862V495.75H197.22l58.6118-43.959,57.9532,43.959H352V368H472.0981A23.9288,23.9288,0,0,0,496,344.0981V39.9019A23.9288,23.9288,0,0,0,472.0981,16ZM320,460.3,255.9409,411.709,191.8862,459.75V368H320ZM464,336H48V280H464Zm0-120H48V48H464Z"/>
</svg>
