<svg id="export" xmlns="http://www.w3.org/2000/svg" viewBox="0 0 512 512">
  <defs>
    <style>
      .cls-1 {
        fill: currentColor;
      }
    </style>
  </defs>
  <title>chart-pie</title>
  <g>
    <path class="cls-1" d="M105.3608,398.32A195.8918,195.8918,0,0,1,343.42,91.125L366.6758,67.87A227.8755,227.8755,0,0,0,82.7329,420.9482,228.0283,228.0283,0,0,0,366.24,452.0953l-23.312-23.312C267.9045,472.7681,169.6571,462.6174,105.3608,398.32Z"/>
    <path class="cls-1" d="M468.916,353.07a243.5427,243.5427,0,0,0,0-186.4585c-.8847-2.136-1.8059-4.2511-2.7468-6.3546A242.2626,242.2626,0,0,0,416.11,87.5708l-11.3135-11.314L393.4832,87.5706l-172.27,172.27,172.63,172.63,10.9539,10.9538L416.11,432.11a242.2355,242.2355,0,0,0,49.4514-71.3586C466.7159,358.2122,467.8442,355.6573,468.916,353.07ZM404.3589,121.95a211.571,211.571,0,0,1,0,275.7817L266.4678,259.84Z"/>
  </g>
</svg>
