<svg id="export" xmlns="http://www.w3.org/2000/svg" viewBox="0 0 512 512">
  <defs>
    <style>
      .cls-1 {
        fill: currentColor;
      }
    </style>
  </defs>
  <title>money-bill</title>
  <g>
    <path class="cls-1" d="M16,80V432H496V80ZM464,400H48V112H464Z"/>
    <path class="cls-1" d="M256,352.1338c48.5234,0,88-43.125,88-96.1338s-39.4766-96.1338-88-96.1338S168,202.9912,168,256,207.4766,352.1338,256,352.1338Zm0-160.2676c30.8784,0,56,28.7705,56,64.1338s-25.1216,64.1338-56,64.1338S200,291.3633,200,256,225.1216,191.8662,256,191.8662Z"/>
    <rect class="cls-1" x="80" y="152" width="32" height="216"/>
    <rect class="cls-1" x="400" y="152" width="32" height="216"/>
  </g>
</svg>
