<svg id="export" xmlns="http://www.w3.org/2000/svg" viewBox="0 0 512 512">
  <defs>
    <style>
      .cls-1 {
        fill: currentColor;
      }
    </style>
  </defs>
  <title>store</title>
  <g>
    <path class="cls-1" d="M496,237.4033,443.5322,80H68.4678L16,237.4033V272H48V496H464V272h32ZM91.5322,112H420.4678l42.667,128H48.8652ZM144,272h88V400H144Zm-64,0h32V432H264V272h40V464H80ZM432,464H336V272h96Z"/>
    <rect class="cls-1" x="72" y="16" width="368" height="32"/>
  </g>
</svg>
