<svg id="export" xmlns="http://www.w3.org/2000/svg" viewBox="0 0 512 512">
  <defs>
    <style>
      .cls-1 {
        fill: currentColor;
      }
    </style>
  </defs>
  <title>yen-slash</title>
  <g>
    <polygon class="cls-1" points="396.64 97.81 371.36 78.19 272.921 205.039 295.728 227.846 396.64 97.81"/>
    <polygon class="cls-1" points="266.563 243.937 253.147 230.52 38.627 16 38.627 16 16 16 16 38.627 233.373 256 152.471 256 152.471 288 265.373 288 300.196 322.823 152.471 322.823 152.471 354.823 240 354.823 240 432 272 432 272 354.823 332.196 354.823 473.373 496 496 496 496 473.373 266.563 243.937"/>
  </g>
</svg>
