<svg id="export" xmlns="http://www.w3.org/2000/svg" viewBox="0 0 512 512">
  <defs>
    <style>
      .cls-1 {
        fill: currentColor;
      }
    </style>
  </defs>
  <title>expand-left</title>
  <g>
    <rect class="cls-1" x="464" y="16" width="32" height="480"/>
    <path class="cls-1" d="M16,496H144V16H16ZM48,48h64V464H48Z"/>
    <path class="cls-1" d="M208.7764,255.9233,376.0786,416H416V96H378.14ZM384,379.291,255.2236,256.0767,384,134.478Z"/>
  </g>
</svg>
