<svg id="export" xmlns="http://www.w3.org/2000/svg" viewBox="0 0 512 512">
  <defs>
    <style>
      .cls-1 {
        fill: currentColor;
      }
    </style>
  </defs>
  <title>paragraph</title>
  <path class="cls-1" d="M440,64H208a128,128,0,0,0,0,256h56V448H376V96h64ZM208,288a96,96,0,0,1,0-192h56V288ZM344,416H296V96h48Z"/>
</svg>
