<svg id="export" xmlns="http://www.w3.org/2000/svg" viewBox="0 0 512 512">
  <defs>
    <style>
      .cls-1 {
        fill: currentColor;
      }
    </style>
  </defs>
  <title>space-bar</title>
  <polygon class="cls-1" points="464 416 40 416 40 288 72 288 72 384 432 384 432 288 464 288 464 416"/>
  <polygon class="cls-1" points="464 416 40 416 40 288 72 288 72 384 432 384 432 288 464 288 464 416"/>
</svg>
