<svg id="export" xmlns="http://www.w3.org/2000/svg" viewBox="0 0 512 512">
  <defs>
    <style>
      .cls-1 {
        fill: currentColor;
      }
    </style>
  </defs>
  <title>text-strike#strikethrough</title>
  <g>
    <path class="cls-1" d="M16,16V496H496V16ZM464,464H48V48H464Z"/>
    <path class="cls-1" d="M344.7658,288h-87.741l38.0543,25.748a21.8918,21.8918,0,0,1,9.5576,16.1866,20.6477,20.6477,0,0,1-6.0576,16.8242C294.7031,350.584,286.7051,357,276.6768,357H172.6758v54h104.001c21.7226,0,42.9726-9.165,59.8349-25.8076a74.6384,74.6384,0,0,0,21.8965-60.2188A75.8277,75.8277,0,0,0,344.7658,288Z"/>
    <path class="cls-1" d="M306.0929,256H432V224H258.7986l-43.3728-29.3467c-12.1944-8.251-9.7246-20.7549-8.6768-24.39,1.2686-4.4014,5.6465-14.6426,18.9639-15.2481,6.4678-.0176,118.2812.003,118.2812.003l.0118-54s-119.1758-.0051-119.795.0156c-32.9486,1.1023-60.1709,22.4189-69.3505,54.2773-7.125,24.7268-1.8193,49.8476,13.481,68.6885H80v32H306.0929Z"/>
  </g>
</svg>
