<svg xmlns="http://www.w3.org/2000/svg" viewBox="0 0 512 512">
  <defs>
    <style>
      .a {
        fill: currentColor;
      }
    </style>
  </defs>
  <title>mobile-volume</title>
  <g>
    <rect class="a" x="216" y="400" width="32" height="32"/>
    <path class="a" d="M104,336V112H384V48a32.0361,32.0361,0,0,0-32-32H104A32.0361,32.0361,0,0,0,72,48V464a32.0364,32.0364,0,0,0,32,32H352a32.0364,32.0364,0,0,0,32-32V336Zm0-288H352l.0016,32H104ZM352,464H104V368H352.0157l.0048,95.999Z"/>
    <path class="a" d="M351.1638,230.2694a34.0559,34.0559,0,0,1-17.5432,23.3512l20.0986,20.0986a55.9583,55.9583,0,0,0,0-99.4384l-22.2,22.2c8.7754,4.4386,19.4933,12.5207,20.4052,25.7062.0451.5991.0756,1.2024.0756,1.813,0,0-.0007.1212-.0084.3323A23.9194,23.9194,0,0,1,351.1638,230.2694Z"/>
    <path class="a" d="M416,154.7936a112.96,112.96,0,0,0-21.7529-21.0407l-22.9986,22.9986a79.902,79.902,0,0,1,0,134.497l22.9986,22.9986A112.96,112.96,0,0,0,416,293.2064a111.7818,111.7818,0,0,0,0-138.4128Z"/>
    <path class="a" d="M169.1426,170.2856V277.7148h54.4082L276.4077,312H304V136H276.4077l-52.8569,34.2856ZM272,177.0015V270.999l-38.9795-25.2842H201.1426V202.2856h31.8779Z"/>
  </g>
</svg>
