<svg xmlns="http://www.w3.org/2000/svg" viewBox="0 0 512 512">
  <defs>
    <style>
      .a {
        fill: currentColor;
      }
    </style>
  </defs>
  <title>phone-bluetooth</title>
  <path class="a" d="M168.1632,496H145.8185a25.0839,25.0839,0,0,1-21.3926-11.8564l-.4287-.6846L81.3361,396.8652l124.6172-93.4629,57.3359,43.002A88.5207,88.5207,0,0,0,346.4044,263.29l-43.0019-57.3369L396.8654,81.3359l86.5918,42.6612.6826.4267A25.0819,25.0819,0,0,1,496,145.8184v22.3447A327.8377,327.8377,0,0,1,168.1632,496Zm-18.0791-32h18.0791C331.2882,464,464,331.2881,464,168.1631V150.084l-57.4629-28.3106-63.1347,84.18L378.5519,252.82v5.333A120.5353,120.5353,0,0,1,258.1525,378.5518H252.82l-46.8662-35.1495-84.18,63.1348Z"/>
  <path class="a" d="M224,72l-74.667-56H104V130.4434l-56-35.84v37.9933l43.3,27.712L48,191.4846v39.431l56-40.32V296h45.333L224,240V207.2441L148.23,158.751,224,104.1953ZM191.4562,224.4082,138.6671,264H136V188.916ZM136,128.124V48h2.667l53.2,39.9Z"/>
</svg>
