<svg id="export" xmlns="http://www.w3.org/2000/svg" viewBox="0 0 512 512">
  <defs>
    <style>
      .cls-1 {
        fill: currentColor;
      }
    </style>
  </defs>
  <title>wifi-signal-0</title>
  <path class="cls-1" d="M237.7783,480h36.4434L504,151.8418V124.4043l-.2148-.15a432.02,432.02,0,0,0-495.57,0l-.2148.15v27.4375ZM256,78.1279a397.866,397.866,0,0,1,216.144,63.419L256,450.2324,39.856,141.5469A397.866,397.866,0,0,1,256,78.1279Z"/>
</svg>
