<svg id="export" xmlns="http://www.w3.org/2000/svg" viewBox="0 0 512 512">
  <defs>
    <style>
      .cls-1 {
        fill: currentColor;
      }
    </style>
  </defs>
  <title>battery-alt-1</title>
  <g>
    <rect class="cls-1" x="464.0142" y="176" width="32" height="152"/>
    <path class="cls-1" d="M407.0142,96H40a24.0275,24.0275,0,0,0-24,24V384a24.0275,24.0275,0,0,0,24,24H407.0142a24.0272,24.0272,0,0,0,24-24V120A24.0272,24.0272,0,0,0,407.0142,96Zm-8,280H48V128H399.0142Z"/>
    <rect class="cls-1" x="110.0142" y="160" width="32" height="184"/>
  </g>
</svg>
