<svg id="export" xmlns="http://www.w3.org/2000/svg" viewBox="0 0 512 512">
  <defs>
    <style>
      .cls-1 {
        fill:currentColor;
      }
    </style>
  </defs>
  <title>speech-notes-slash</title>
  <g>
    <path class="cls-1" d="M464,32H99.8818l32,32H464V352H419.882l32,32H464a32.0364,32.0364,0,0,0,32-32V64A32.0364,32.0364,0,0,0,464,32Z"/>
    <path class="cls-1" d="M38.627,16H16V38.627L233.373,256H160v32H265.373l64,64h-88L144,449.373V352H48V117.2024l-32-32V352a32.0364,32.0364,0,0,0,32,32h64V496h30.6274l112-112H361.373l112,112H496V473.373Z"/>
    <polygon class="cls-1" points="416 128 195.882 128 227.882 160 416 160 416 128"/>
    <polygon class="cls-1" points="416 192 259.882 192 291.882 224 416 224 416 192"/>
    <polygon class="cls-1" points="416 288 416 256 323.882 256 355.882 288 416 288"/>
    <rect class="cls-1" x="96" y="192" width="32" height="32"/>
    <rect class="cls-1" x="96" y="256" width="32" height="32"/>
  </g>
</svg>
