<svg id="export" xmlns="http://www.w3.org/2000/svg" viewBox="0 0 512 512">
  <defs>
    <style>
      .cls-1 {
        fill: currentColor;
      }
    </style>
  </defs>
  <title>input-hdmi</title>
  <path class="cls-1" d="M400,120V16H112V120H80V251.4922L152,408.583V496H360V408.583l72-157.0908V120ZM144,48H368v72H336V80H304v40H272V80H240v40H208V80H176v40H144ZM400,244.5078,328,401.5986V464H184V401.5986L112,244.5078V152H400Z"/>
</svg>
