<?xml version="1.0" encoding="utf-8"?>
<!-- Generator: Adobe Illustrator 21.0.0, SVG Export Plug-In . SVG Version: 6.00 Build 0)  -->
<svg version="1.0" id="Layer_1" xmlns="http://www.w3.org/2000/svg" xmlns:xlink="http://www.w3.org/1999/xlink" x="0px" y="0px"
	 viewBox="0 0 706 134" style="enable-background:new 0 0 706 134;" xml:space="preserve">
<style type="text/css">
	.st0{fill:#211915;stroke:#FFFFFF;stroke-miterlimit:10;}
	.st1{fill:#211915;}
	.st2{font-family:'ArialMT';}
	.st3{font-size:72px;}
</style>
<title>coreui react pro neg</title>
<path class="st0" d="M99.8,36.1l-39-22.5c-3.7-2.1-8.3-2.1-12,0l-39,22.5c-3.7,2.1-6,6.1-6,10.4v45c0,4.3,2.3,8.2,6,10.4l39,22.5
	c3.7,2.1,8.3,2.1,12,0l39-22.5c3.7-2.1,6-6.1,6-10.4v-45C105.8,42.2,103.5,38.2,99.8,36.1z M97.8,91.5c0,1.4-0.8,2.7-2,3.5l-39,22.5
	c-1.2,0.7-2.8,0.7-4,0L13.8,95c-1.2-0.7-2-2-2-3.5v-45c0-1.4,0.8-2.7,2-3.5l39-22.5c1.2-0.7,2.8-0.7,4,0l39,22.5c1.2,0.7,2,2,2,3.5
	V91.5z"/>
<text transform="matrix(1 0 0 1 32 90.3458)" class="st1 st2 st3">A</text>
<text transform="matrix(1 0 0 1 114.835 90.9515)" class="st1 st2 st3">ANTECEDENTES</text>
</svg>
