<svg id="export" xmlns="http://www.w3.org/2000/svg" viewBox="0 0 512 512">
  <defs>
    <style>
      .cls-1 {
        fill: currentColor;
      }
    </style>
  </defs>
  <title>hourglass</title>
  <path class="cls-1" d="M367.6611,204.8579h.0005c22.0269-21.5273,34.1577-49.5889,34.1577-79.0156V48H448V16H64V48h46.5117v77.8423c0,29.4272,12.1309,57.4892,34.1582,79.0156L184.6,243.88v24.24l-39.93,39.0215c-22.0268,21.5273-34.1577,49.5889-34.1577,79.0156V464H64v32H448V464H401.8193V386.1572c0-29.4267-12.1308-57.4883-34.1582-79.0156l-39.93-39.0215V243.88ZM345.2954,330.0273c15.8145,15.4561,24.5239,35.39,24.5239,56.13V464H142.5117V386.1572c0-20.74,8.71-40.6738,24.5239-56.1289L216.6,281.5908V230.4092l-49.564-48.437c-15.8144-15.4551-24.5239-35.3892-24.5239-56.13V48H369.8193v77.8423c0,20.74-8.7094,40.6743-24.5239,56.13l-49.564,48.437v51.1816Z"/>
</svg>
