<svg id="export" xmlns="http://www.w3.org/2000/svg" viewBox="0 0 512 512">
  <defs>
    <style>
      .cls-1 {
        fill: currentColor;
      }
    </style>
  </defs>
  <title>location-pin-check</title>
  <g>
    <polygon class="cls-1" points="240 225.373 195.313 180.687 172.687 203.313 240 270.627 355.313 155.313 332.687 132.687 240 225.373"/>
    <path class="cls-1" d="M431.0571,173.4375a173.9216,173.9216,0,1,0-318.71,112.9883L233.2578,472.0391a29.6185,29.6185,0,0,0,49.6348,0L403.8047,286.4258A174.45,174.45,0,0,0,431.0571,173.4375ZM376.9922,268.959l-118.9165,182.55L139.1592,268.959c-36.4-55.8789-28.5938-130.6621,18.563-177.8174a141.92,141.92,0,0,1,200.7075,0C405.5854,138.2969,413.3921,213.08,376.9922,268.959Z"/>
  </g>
</svg>
